{
	"name": "July",
	"abbreviation": "July",
	"talks": [{
			"presenter": {
				"name": ""
			},
			"presentation": {
				"title": "SecDSM 101 - July 2018",
				"links": [{
					"url": "https://www.youtube.com/watch?v=VmmngtpXUtM",
					"type": "youtube"
				}]
			}
		},
		{
			"presenter": {
				"name": "Brandon Murphy"
			},
			"presentation": {
				"title": "Verification of HTML document subresources",
				"links": [{
					"url": "https://www.youtube.com/watch?v=0lqVwp2DJ4U",
					"type": "youtube"
				}]
			}
		},
		{
			"presenter": {
				"name": "Matthew White and Nicholas Starke"
			},
			"presentation": {
				"title": "Introduction to PFSense",
				"links": [{
					"url": "https://www.youtube.com/watch?v=GOzhvwGyxn0",
					"type": "youtube"
				}]
			}
		},
		{
			"presenter": {
				"name": "Arden Meyer"
			},
			"presentation": {
				"title": "Privilege Escalation in Mechanical Master-Keyed Systems",
				"links": [{
					"url": "https://www.youtube.com/watch?v=ch8w5IXYo7A",
					"type": "youtube"
				}]
			}
		}
	]
}