{
	"name": "May",
	"abbreviation": "May",
	"talks": [{
			"presenter": {
				"name": ""
			},
			"presentation": {
				"title": "SecDSM 101 - May 2018",
				"links": [{
					"url": "https://www.youtube.com/watch?v=xACe9ZkUupg",
					"type": "youtube"
				}]
			}
		},
		{
			"presenter": {
				"name": "K. Reid Wightman"
			},
			"presentation": {
				"title": "Switches Get Root Canals - May 2018",
				"links": [{
					"url": "https://www.youtube.com/watch?v=GeTMJafpMA0",
					"type": "youtube"
				}]
			}
		},
		{
			"presenter": {
				"name": "Stacy Monroe"
			},
			"presentation": {
				"title": "Achieving Scale with SAST - May 2018",
				"links": [{
					"url": "https://www.youtube.com/watch?v=odLz74UvQYg",
					"type": "youtube"
				}]
			}
		},
		{
			"presenter": {
				"name": "Jared Brees"
			},
			"presentation": {
				"title": "Yubikeys With Crypto Keys - May 2018",
				"links": [{
					"url": "https://www.youtube.com/watch?v=ZfbAiwD95Fw",
					"type": "youtube"
				}]
			}
		}
	]
}