{
  "name": "February ",
  "abbreviation": "Feb",
  "talks": [
    {
      "presenter": {
        "name": "Nicholas Starke"
      },
      "presentation": {
        "title": "Introduction to SQLMAP",
        "links": [
          {
            "url": "https://www.youtube.com/watch?v=WvdoRVZsVDA",
            "type": "youtube"
          }
        ]
      }
    },
    {
      "presenter": {
        "name": "Jared Brees"
      },
      "presentation": {
        "title": "Password cracking",
        "links": [
          {
            "url": "https://www.youtube.com/watch?v=vsPFzzvFdkQ",
            "type": "youtube"
          }
        ]
      }
    }
  ]
}